{
	"Window": {
		"Toolbar": true,
		"Statusbar": true,
		"Category": true,
		"Summary": true,
		"Banner": false,
		"x": 134,
		"y": 85,
		"width": 1632,
		"height": 864,
		"maximized": false,
		"NthCategory": 0,
		"NthStatus": 0,
		"PanedPositionH": 359,
		"PanedPositionV": 687
	},
	"Summary": {
		"name": true,
		"folder": true,
		"category": false,
		"uri": false,
		"message": true
	},
	"DownloadColumn": {
		"complete": true,
		"total": true,
		"percent": true,
		"elapsed": true,
		"left": true,
		"speed": true,
		"UploadSpeed": true,
		"uploaded": false,
		"ratio": true,
		"retry": true,
		"category": false,
		"uri": false,
		"AddedOn": true,
		"CompletedOn": false,
		"SortType": 1,
		"SortNth": 0,
		"Width": {
			"state": 18,
			"name": 532,
			"complete": 70,
			"total": 70,
			"percent": 60,
			"elapsed": 65,
			"left": 65,
			"speed": 80,
			"UploadSpeed": 80,
			"uploaded": 0,
			"ratio": 45,
			"retry": 45,
			"category": 0,
			"uri": 0,
			"AddedOn": 140,
			"CompletedOn": 0
		},
		"completed": true
	},
	"UserInterface": {
		"ExitConfirmation": true,
		"DeleteConfirmation": true,
		"ShowTrayIcon": true,
		"StartInTray": false,
		"CloseToTray": true,
		"StartInOfflineMode": false,
		"StartNotification": true,
		"SoundNotification": true,
		"ApplyRecently": true,
		"ApplyRecent": true,
		"SkipExisting": false,
		"LargeIcon": false
	},
	"Clipboard": {
		"pattern": "BIN|ZIP|GZ|7Z|XZ|Z|TAR|TGZ|BZ2|LZH|A[0-9]?|RAR|R[0-9][0-9]|ISO|RPM|DEB|EXE|MSI|APK|3GP|AAC|FLAC|M4A|M4P|MP3|OGG|WAV|WMA|MP4|MKV|WEBM|OGV|AVI|MOV|WMV|FLV|F4V|MPG|MPEG|RMVB",
		"monitor": true,
		"quiet": false,
		"NthCategory": 0,
		"Website": true,
		"MediaWebsite": true
	},
	"Bandwidth": {
		"NormalUpload": 0,
		"NormalDownload": 0,
		"SchedulerUpload": 0,
		"SchedulerDownload": 0
	},
	"Commandline": {
		"quiet": false,
		"NthCategory": 0
	},
	"PluginOrder": 0,
	"PluginAria2": {
		"launch": true,
		"shutdown": true,
		"token": null,
		"path": "aria2c",
		"arguments": "--enable-rpc=true -D --disable-ipv6 --check-certificate=false",
		"uri": "http:\/\/localhost:6800\/jsonrpc",
		"MaxUploadSpeed": 0,
		"MaxDownloadSpeed": 0
	},
	"PluginMedia": {
		"match_mode": 3,
		"quality": 3,
		"type": 1
	},
	"Completion": {
		"remember": true,
		"action": 0,
		"command": null,
		"OnError": null
	},
	"FolderHistory": [
	],
	"AutoSave": 1,
	"AutoSaveInterval": 3,
	"Scheduler": {
		"enable": false,
		"state": [
			3,
			3,
			3,
			3,
			3,
			3,
			3,
			3,
			3,
			3,
			3,
			3,
			3,
			3,
			3,
			3,
			3,
			3,
			3,
			3,
			3,
			3,
			3,
			3,
			3,
			3,
			3,
			3,
			3,
			3,
			3,
			3,
			3,
			3,
			3,
			3,
			3,
			3,
			3,
			3,
			3,
			3,
			3,
			3,
			3,
			3,
			3,
			3,
			3,
			3,
			3,
			3,
			3,
			3,
			3,
			3,
			3,
			3,
			3,
			3,
			3,
			3,
			3,
			3,
			3,
			3,
			3,
			3,
			3,
			3,
			3,
			3,
			3,
			3,
			3,
			3,
			3,
			3,
			3,
			3,
			3,
			3,
			3,
			3,
			3,
			3,
			3,
			3,
			3,
			3,
			3,
			3,
			3,
			3,
			3,
			3,
			3,
			3,
			3,
			3,
			3,
			3,
			3,
			3,
			3,
			3,
			3,
			3,
			3,
			3,
			3,
			3,
			3,
			3,
			3,
			3,
			3,
			3,
			3,
			3,
			3,
			3,
			3,
			3,
			3,
			3,
			3,
			3,
			3,
			3,
			3,
			3,
			3,
			3,
			3,
			3,
			3,
			3,
			3,
			3,
			3,
			3,
			3,
			3,
			3,
			3,
			3,
			3,
			3,
			3,
			3,
			3,
			3,
			3,
			3,
			3,
			3,
			3,
			3,
			3,
			3,
			3,
			3,
			3,
			3,
			3,
			3,
			3
		]
	}
}

